{
  "name": "Floatzel",
  "nationalPokedexNumber": 419,
  "primaryType": "water",
  "abilities": [
    "swiftswim",
    "h:waterveil"
  ],
  "baseStats": {
    "hp": 85,
    "attack": 105,
    "defence": 55,
    "special_attack": 85,
    "special_defence": 50,
    "speed": 115
  },
  "catchRate": 75,
  "maleRatio": 0.5,
  "shoulderMountable": false,
  "baseExperienceYield": 173,
  "experienceGroup": "medium_fast",
  "eggCycles": 20,
  "eggGroups": [
    "water_1",
    "field"
  ],
  "moves": [
    "1:crunch",
    "1:growl",
    "1:icefang",
    "1:quickattack",
    "1:soak",
    "1:sonicboom",
    "1:watersport",
    "6:watergun",
    "10:pursuit",
    "15:swift",
    "15:watergun",
    "18:bite",
    "18:pursuit",
    "21:aquajet",
    "21:swift",
    "24:aquajet",
    "26:crunch",
    "29:agility",
    "29:doublehit",
    "35:whirlpool",
    "39:whirlpool",
    "41:liquidation",
    "41:razorwind",
    "46:aquatail",
    "50:razorwind",
    "51:agility",
    "57:hydropump",
    "62:aquatail",
    "62:wavecrash",
    "tm:agility",
    "tm:attract",
    "tm:batonpass",
    "tm:blizzard",
    "tm:bodyslam",
    "tm:brickbreak",
    "tm:brine",
    "tm:bulkup",
    "tm:captivate",
    "tm:chillingwater",
    "tm:confide",
    "tm:crunch",
    "tm:dig",
    "tm:dive",
    "tm:doubleteam",
    "tm:echoedvoice",
    "tm:endure",
    "tm:facade",
    "tm:fling",
    "tm:focusblast",
    "tm:focuspunch",
    "tm:frustration",
    "tm:gigaimpact",
    "tm:hail",
    "tm:helpinghand",
    "tm:hiddenpower",
    "tm:hydropump",
    "tm:hyperbeam",
    "tm:icebeam",
    "tm:icefang",
    "tm:icepunch",
    "tm:icespinner",
    "tm:icywind",
    "tm:irontail",
    "tm:liquidation",
    "tm:lowkick",
    "tm:lowsweep",
    "tm:metronome",
    "tm:mudslap",
    "tm:naturalgift",
    "tm:payback",
    "tm:poweruppunch",
    "tm:protect",
    "tm:raindance",
    "tm:rest",
    "tm:return",
    "tm:roar",
    "tm:rocksmash",
    "tm:rocktomb",
    "tm:round",
    "tm:scald",
    "tm:scaryface",
    "tm:secretpower",
    "tm:sleeptalk",
    "tm:snarl",
    "tm:strength",
    "tm:substitute",
    "tm:surf",
    "tm:swagger",
    "tm:swift",
    "tm:takedown",
    "tm:taunt",
    "tm:terablast",
    "tm:thief",
    "tm:torment",
    "tm:toxic",
    "tm:waterfall",
    "tm:waterpulse",
    "tm:whirlpool",
    "tutor:aquatail",
    "tutor:dive",
    "tutor:focuspunch",
    "tutor:headbutt",
    "tutor:helpinghand",
    "tutor:icepunch",
    "tutor:icywind",
    "tutor:irontail",
    "tutor:liquidation",
    "tutor:lowkick",
    "tutor:mudslap",
    "tutor:sleeptalk",
    "tutor:snore",
    "tutor:swift",
    "tutor:waterpulse"
  ],
  "labels": [
    "gen4"
  ],
  "pokedex": [
    "cobblemon.species.floatzel.desc"
  ],
  "preEvolution": "buizel",
  "evolutions": [],
  "baseScale": 1,
  "hitbox": {
    "width": 1,
    "height": 1,
    "fixed": false
  },
  "baseFriendship": 70,
  "evYield": {
    "hp": 0,
    "attack": 0,
    "defence": 0,
    "special_attack": 0,
    "special_defence": 0,
    "speed": 2
  },
  "height": 11,
  "weight": 335,
  "aspects": [],
  "cannotDynamax": false
}