{
  "name": "Absol",
  "nationalPokedexNumber": 359,
  "primaryType": "dark",
  "abilities": [
    "pressure",
    "superluck",
    "h:justified"
  ],
  "baseStats": {
    "hp": 65,
    "attack": 130,
    "defence": 60,
    "special_attack": 75,
    "special_defence": 60,
    "speed": 75
  },
  "catchRate": 30,
  "maleRatio": 0.5,
  "shoulderMountable": false,
  "forms": [
    {
      "name": "Mega",
      "primaryType": "dark",
      "abilities": [
        "magicbounce"
      ],
      "baseStats": {
        "hp": 65,
        "attack": 150,
        "defence": 60,
        "special_attack": 115,
        "special_defence": 60,
        "speed": 115
      },
      "catchRate": 30,
      "maleRatio": 0.5,
      "baseExperienceYield": 163,
      "baseFriendship": 35,
      "evYield": {
        "hp": 0,
        "attack": 2,
        "defence": 0,
        "special_attack": 0,
        "special_defence": 0,
        "speed": 0
      },
      "experienceGroup": "medium_slow",
      "eggCycles": 25,
      "eggGroups": [
        "field"
      ],
      "labels": [
        "gen6",
        "mega"
      ],
      "aspects": [
        "mega"
      ],
      "height": 12,
      "weight": 490,
      "evolutions": [],
      "cannotDynamax": false,
      "battleOnly": true
    }
  ],
  "baseExperienceYield": 163,
  "experienceGroup": "medium_slow",
  "eggCycles": 25,
  "eggGroups": [
    "field"
  ],
  "moves": [
    "1:feint",
    "1:leer",
    "1:quickattack",
    "1:scratch",
    "5:doubleteam",
    "10:knockoff",
    "10:pursuit",
    "15:detect",
    "16:bite",
    "20:taunt",
    "25:slash",
    "30:nightslash",
    "35:focusenergy",
    "37:psychocut",
    "40:suckerpunch",
    "41:mefirst",
    "45:swordsdance",
    "49:razorwind",
    "50:futuresight",
    "55:perishsong",
    "egg:assurance",
    "egg:batonpass",
    "egg:bite",
    "egg:curse",
    "egg:doubleedge",
    "egg:feint",
    "egg:feintattack",
    "egg:hex",
    "egg:magiccoat",
    "egg:meanlook",
    "egg:mefirst",
    "egg:megahorn",
    "egg:perishsong",
    "egg:playrough",
    "egg:punishment",
    "egg:substitute",
    "egg:suckerpunch",
    "egg:zenheadbutt",
    "tm:aerialace",
    "tm:airslash",
    "tm:assurance",
    "tm:attract",
    "tm:batonpass",
    "tm:blizzard",
    "tm:bodyslam",
    "tm:bounce",
    "tm:brutalswing",
    "tm:calmmind",
    "tm:captivate",
    "tm:chargebeam",
    "tm:closecombat",
    "tm:confide",
    "tm:cut",
    "tm:darkpulse",
    "tm:doubleteam",
    "tm:dreameater",
    "tm:echoedvoice",
    "tm:endure",
    "tm:facade",
    "tm:falseswipe",
    "tm:fireblast",
    "tm:flamethrower",
    "tm:flash",
    "tm:focusenergy",
    "tm:foulplay",
    "tm:frustration",
    "tm:futuresight",
    "tm:gigaimpact",
    "tm:hail",
    "tm:hex",
    "tm:hiddenpower",
    "tm:honeclaws",
    "tm:hyperbeam",
    "tm:icebeam",
    "tm:icywind",
    "tm:incinerate",
    "tm:irontail",
    "tm:megahorn",
    "tm:naturalgift",
    "tm:payback",
    "tm:playrough",
    "tm:protect",
    "tm:psychocut",
    "tm:psychup",
    "tm:raindance",
    "tm:rest",
    "tm:retaliate",
    "tm:return",
    "tm:rockslide",
    "tm:rocksmash",
    "tm:rocktomb",
    "tm:round",
    "tm:sandstorm",
    "tm:secretpower",
    "tm:shadowball",
    "tm:shadowclaw",
    "tm:shockwave",
    "tm:sleeptalk",
    "tm:snarl",
    "tm:snatch",
    "tm:snore",
    "tm:stoneedge",
    "tm:strength",
    "tm:substitute",
    "tm:sunnyday",
    "tm:superpower",
    "tm:swagger",
    "tm:swift",
    "tm:swordsdance",
    "tm:taunt",
    "tm:thief",
    "tm:throatchop",
    "tm:thunder",
    "tm:thunderbolt",
    "tm:thunderwave",
    "tm:torment",
    "tm:toxic",
    "tm:waterpulse",
    "tm:willowisp",
    "tm:xscissor",
    "tm:zenheadbutt",
    "tutor:bite",
    "tutor:bodyslam",
    "tutor:bounce",
    "tutor:counter",
    "tutor:darkpulse",
    "tutor:doubleedge",
    "tutor:doubleteam",
    "tutor:dreameater",
    "tutor:endure",
    "tutor:feint",
    "tutor:foulplay",
    "tutor:furycutter",
    "tutor:futuresight",
    "tutor:headbutt",
    "tutor:icywind",
    "tutor:irontail",
    "tutor:knockoff",
    "tutor:laserfocus",
    "tutor:leer",
    "tutor:magiccoat",
    "tutor:megahorn",
    "tutor:mimic",
    "tutor:mudslap",
    "tutor:nightmare",
    "tutor:perishsong",
    "tutor:psychup",
    "tutor:razorwind",
    "tutor:rockslide",
    "tutor:roleplay",
    "tutor:scratch",
    "tutor:shockwave",
    "tutor:slash",
    "tutor:sleeptalk",
    "tutor:snatch",
    "tutor:snore",
    "tutor:spite",
    "tutor:substitute",
    "tutor:suckerpunch",
    "tutor:superpower",
    "tutor:swagger",
    "tutor:swift",
    "tutor:swordsdance",
    "tutor:throatchop",
    "tutor:thunderwave",
    "tutor:waterpulse",
    "tutor:wish",
    "tutor:zenheadbutt"
  ],
  "labels": [
    "gen3"
  ],
  "pokedex": [
    "cobblemon.species.absol.desc"
  ],
  "evolutions": [],
  "baseScale": 1,
  "hitbox": {
    "width": 1,
    "height": 1,
    "fixed": false
  },
  "baseFriendship": 35,
  "evYield": {
    "hp": 0,
    "attack": 2,
    "defence": 0,
    "special_attack": 0,
    "special_defence": 0,
    "speed": 0
  },
  "height": 12,
  "weight": 470,
  "aspects": [],
  "cannotDynamax": false
}