{
  "name": "Cradily",
  "nationalPokedexNumber": 346,
  "primaryType": "rock",
  "secondaryType": "grass",
  "abilities": [
    "suctioncups",
    "h:stormdrain"
  ],
  "baseStats": {
    "hp": 86,
    "attack": 81,
    "defence": 97,
    "special_attack": 81,
    "special_defence": 107,
    "speed": 43
  },
  "catchRate": 45,
  "maleRatio": 0.875,
  "shoulderMountable": false,
  "baseExperienceYield": 173,
  "experienceGroup": "erratic",
  "eggCycles": 30,
  "eggGroups": [
    "water_3"
  ],
  "moves": [
    "1:acid",
    "1:astonish",
    "1:confuseray",
    "1:constrict",
    "1:leechseed",
    "1:wrap",
    "1:wringout",
    "12:ingrain",
    "16:ancientpower",
    "20:megadrain",
    "24:brine",
    "28:amnesia",
    "32:gastroacid",
    "36:gigadrain",
    "43:spitup",
    "43:stockpile",
    "43:swallow",
    "48:energyball",
    "tm:amnesia",
    "tm:attract",
    "tm:bodyslam",
    "tm:brine",
    "tm:bulldoze",
    "tm:bulletseed",
    "tm:captivate",
    "tm:confide",
    "tm:dig",
    "tm:doubleteam",
    "tm:earthpower",
    "tm:earthquake",
    "tm:endure",
    "tm:energyball",
    "tm:facade",
    "tm:flash",
    "tm:frustration",
    "tm:gigadrain",
    "tm:gigaimpact",
    "tm:grassknot",
    "tm:grassyterrain",
    "tm:hiddenpower",
    "tm:hyperbeam",
    "tm:infestation",
    "tm:mudshot",
    "tm:naturalgift",
    "tm:powerwhip",
    "tm:protect",
    "tm:rest",
    "tm:return",
    "tm:rockblast",
    "tm:rockpolish",
    "tm:rockslide",
    "tm:rocksmash",
    "tm:rocktomb",
    "tm:round",
    "tm:sandstorm",
    "tm:secretpower",
    "tm:seedbomb",
    "tm:sleeptalk",
    "tm:sludgebomb",
    "tm:sludgewave",
    "tm:smackdown",
    "tm:snore",
    "tm:solarbeam",
    "tm:stealthrock",
    "tm:stoneedge",
    "tm:strength",
    "tm:substitute",
    "tm:sunnyday",
    "tm:swagger",
    "tm:swordsdance",
    "tm:toxic",
    "tutor:ancientpower",
    "tutor:bind",
    "tutor:block",
    "tutor:bodyslam",
    "tutor:doubleedge",
    "tutor:earthpower",
    "tutor:endure",
    "tutor:gastroacid",
    "tutor:gigadrain",
    "tutor:headbutt",
    "tutor:meteorbeam",
    "tutor:mimic",
    "tutor:mudslap",
    "tutor:painsplit",
    "tutor:psychup",
    "tutor:rockslide",
    "tutor:seedbomb",
    "tutor:sleeptalk",
    "tutor:snore",
    "tutor:stealthrock",
    "tutor:stringshot",
    "tutor:substitute",
    "tutor:swagger",
    "tutor:synthesis",
    "tutor:worryseed"
  ],
  "labels": [
    "gen3"
  ],
  "pokedex": [
    "cobblemon.species.cradily.desc"
  ],
  "preEvolution": "lileep",
  "evolutions": [],
  "baseScale": 1,
  "hitbox": {
    "width": 1,
    "height": 1,
    "fixed": false
  },
  "baseFriendship": 50,
  "evYield": {
    "hp": 0,
    "attack": 0,
    "defence": 0,
    "special_attack": 0,
    "special_defence": 2,
    "speed": 0
  },
  "height": 15,
  "weight": 604,
  "aspects": [],
  "cannotDynamax": false
}