{
	"display": {
		"icon": {
			"item": "cobblemon:pokemon_model",
			"nbt": "{\"species\":\"cobblemon:gyarados\",\"aspects\":[\"shiny\"]}"
		},
		"title": {
			"translate": "advancements.cobblemon.first_shiny_catch"
		},
		"description": {
			"translate": "advancements.cobblemon.first_shiny_catch.description"
		}
	},
	"parent": "cobblemon:first_catch",
	"criteria": {
		"catch": {
			"trigger": "cobblemon:catch_shiny_pokemon",
			"conditions": {
				"count": 1
			}
		}
	}
}